<svg width="22" height="22" viewBox="0 0 22 22" fill="none" xmlns="http://www.w3.org/2000/svg">
<rect x="0.792969" y="1" width="20" height="20" rx="4" fill="white" stroke="#2D242D"/>
<path d="M8.99805 6.6413H16.6904" stroke="#2D242D" stroke-linecap="round"/>
<path d="M8.99805 10.7438H16.6904" stroke="#2D242D" stroke-linecap="round"/>
<path d="M8.99805 14.8464H12.075" stroke="#2D242D" stroke-linecap="round"/>
<path d="M14.127 14.8465H16.6911" stroke="#2D242D" stroke-linecap="round"/>
<path d="M15.4081 13.5643V16.1284" stroke="#2D242D" stroke-linecap="round"/>
<circle cx="5.66572" cy="6.64106" r="0.769231" fill="#2D242D"/>
<circle cx="5.66572" cy="10.7438" r="0.769231" fill="#2D242D"/>
<circle cx="5.66572" cy="14.8464" r="0.769231" fill="#2D242D"/>
</svg>
